I do it for fun
…
data(airquality) # loading the airquality dataset

class(airquality) # checking the class of airquality

[1] "data.frame"

airquality <- as_tibble(airquality) # converting airquality to a tibble

class(airquality) # check the class of airquality

[1] "tbl_df"     "tbl"        "data.frame"

airquality # display airquality dataset

# A tibble: 153 × 6
   Ozone Solar.R  Wind  Temp Month   Day
   <int>   <int> <dbl> <int> <int> <int>
 1    41     190   7.4    67     5     1
 2    36     118   8      72     5     2
 3    12     149  12.6    74     5     3
 4    18     313  11.5    62     5     4
 5    NA      NA  14.3    56     5     5
 6    28      NA  14.9    66     5     6
 7    23     299   8.6    65     5     7
 8    19      99  13.8    59     5     8
 9     8      19  20.1    61     5     9
10    NA     194   8.6    69     5    10
# ℹ 143 more rows

select(airquality, Ozone, Solar.R, Day) # selecting the Ozone, Solar.R and Day columns

# A tibble: 153 × 3
   Ozone Solar.R   Day
   <int>   <int> <int>
 1    41     190     1
 2    36     118     2
 3    12     149     3
 4    18     313     4
 5    NA      NA     5
 6    28      NA     6
 7    23     299     7
 8    19      99     8
 9     8      19     9
10    NA     194    10
# ℹ 143 more rows

# ?as_tibble

select(airquality, -(Wind:Month)) # offsetting Wind and Month from the airquality dataset

# A tibble: 153 × 3
   Ozone Solar.R   Day
   <int>   <int> <int>
 1    41     190     1
 2    36     118     2
 3    12     149     3
 4    18     313     4
 5    NA      NA     5
 6    28      NA     6
 7    23     299     7
 8    19      99     8
 9     8      19     9
10    NA     194    10
# ℹ 143 more rows
…
arrange(airquality,Ozone) # arrange based on Ozone

# A tibble: 153 × 6
   Ozone Solar.R  Wind  Temp Month   Day
   <int>   <int> <dbl> <int> <int> <int>
 1     1       8   9.7    59     5    21
 2     4      25   9.7    61     5    23
 3     6      78  18.4    57     5    18
 4     7      NA   6.9    74     5    11
 5     7      48  14.3    80     7    15
 6     7      49  10.3    69     9    24
 7     8      19  20.1    61     5     9
 8     9      24  13.8    81     8     2
 9     9      36  14.3    72     8    22
10     9      24  10.9    71     9    14
# ℹ 143 more rows

arrange(airquality, Solar.R) # arrange based on Solar.R

# A tibble: 153 × 6
   Ozone Solar.R  Wind  Temp Month   Day
   <int>   <int> <dbl> <int> <int> <int>
 1    16       7   6.9    74     7    21
 2     1       8   9.7    59     5    21
 3    23      13  12      67     5    28
 4    23      14   9.2    71     9    22
 5     8      19  20.1    61     5     9
 6    14      20  16.6    63     9    25
 7     9      24  13.8    81     8     2
 8     9      24  10.9    71     9    14
 9     4      25   9.7    61     5    23
10    13      27  10.3    76     9    18
# ℹ 143 more rows

mutate(airquality, Temp.C = round((Temp - 32) * 5/9)) # creating a new column for Temp.C

# A tibble: 153 × 7
   Ozone Solar.R  Wind  Temp Month   Day Temp.C
   <int>   <int> <dbl> <int> <int> <int>  <dbl>
 1    41     190   7.4    67     5     1     19
 2    36     118   8      72     5     2     22
 3    12     149  12.6    74     5     3     23
 4    18     313  11.5    62     5     4     17
 5    NA      NA  14.3    56     5     5     13
 6    28      NA  14.9    66     5     6     19
 7    23     299   8.6    65     5     7     18
 8    19      99  13.8    59     5     8     15
 9     8      19  20.1    61     5     9     16
10    NA     194   8.6    69     5    10     21
# ℹ 143 more rows

# Removing rows with missing values on the Ozone and Solar.R features
airquality <- filter(airquality, !is.na(Ozone),!is.na(Solar.R))
airquality 

# A tibble: 111 × 6
   Ozone Solar.R  Wind  Temp Month   Day
   <int>   <int> <dbl> <int> <int> <int>
 1    41     190   7.4    67     5     1
 2    36     118   8      72     5     2
 3    12     149  12.6    74     5     3
 4    18     313  11.5    62     5     4
 5    23     299   8.6    65     5     7
 6    19      99  13.8    59     5     8
 7     8      19  20.1    61     5     9
 8    16     256   9.7    69     5    12
 9    11     290   9.2    66     5    13
10    14     274  10.9    68     5    14
# ℹ 101 more rows

### print(airquality, n=143)

# grouping by month
by_month <- group_by (airquality, Month) 
by_month

# A tibble: 111 × 6
# Groups:   Month [5]
   Ozone Solar.R  Wind  Temp Month   Day
   <int>   <int> <dbl> <int> <int> <int>
 1    41     190   7.4    67     5     1
 2    36     118   8      72     5     2
 3    12     149  12.6    74     5     3
 4    18     313  11.5    62     5     4
 5    23     299   8.6    65     5     7
 6    19      99  13.8    59     5     8
 7     8      19  20.1    61     5     9
 8    16     256   9.7    69     5    12
 9    11     290   9.2    66     5    13
10    14     274  10.9    68     5    14
# ℹ 101 more rows
…
# A tibble: 5 × 4
  Month `min(Wind)` `mean(Wind)` `max(Wind)`
  <int>       <dbl>        <dbl>       <dbl>
1     5         5.7        11.5         20.1
2     6         8          12.2         20.7
3     7         4.1         8.52        14.9
4     8         2.3         8.86        15.5
5     9         2.8        10.1         16.6

library (tidyr)
library(ggplot2)

airquality |> transmute(Month_Day = Month + Day, Temp_Wind = Temp + Wind)

# A tibble: 111 × 2
   Month_Day Temp_Wind
       <int>     <dbl>
 1         6      74.4
 2         7      80  
 3         8      86.6
 4         9      73.5
 5        12      73.6
 6        13      72.8
 7        14      81.1
 8        17      78.7
 9        18      75.2
10        19      78.9
# ℹ 101 more rows
…
